traffic_light_4way.vcd
$date
	Thu Nov 14 14:31:27 2024
$end
$version
	Icarus Verilog
$end
$timescale
	100ms
$end
$scope module traffic_light_4way_tb $end
$var wire 3 ! east_light [2:0] $end
$var wire 3 " north_light [2:0] $end
$var wire 3 # south_light [2:0] $end
$var wire 3 $ west_light [2:0] $end
$var reg 1 % clk $end
$var reg 1 & rst $end
$scope module uut $end
$var wire 1 ' clk $end
$var wire 1 ( rst $end
$var reg 3 ) current_state [2:0] $end
$var reg 3 * east_light [2:0] $end
$var reg 3 + next_state [2:0] $end
$var reg 3 , north_light [2:0] $end
$var reg 3 - south_light [2:0] $end
$var reg 6 . timer [5:0] $end
$var reg 3 / west_light [2:0] $end
$upscope $end
$upscope $end
$enddefinitions $end
#0
$dumpvars
b100 /
b0 .
b100 -
b1 ,
b0 +
b100 *
b0 )
1(
0'
1&
0%
b100 $
b100 #
b1 "
b100 !
$end
#5
1%
1'
#10
0%
0'
#15
1%
1'
#20
0%
0'
0&
0(
#25
b1 .
1%
1'
#30
0%
0'
#35
b10 .
1%
1'
#40
0%
0'
#45
b11 .
1%
1'
#50
0%
0'
#55
b100 .
1%
1'
#60
0%
0'
#65
b101 .
1%
1'
#70
0%
0'
#75
b110 .
1%
1'
#80
0%
0'
#85
b111 .
1%
1'
#90
0%
0'
#95
b1000 .
1%
1'
#100
0%
0'
#105
b1001 .
1%
1'
#110
0%
0'
#115
b1010 .
1%
1'
#120
0%
0'
#125
b1011 .
1%
1'
#130
0%
0'
#135
b1100 .
1%
1'
#140
0%
0'
#145
b1101 .
1%
1'
#150
0%
0'
#155
b1110 .
1%
1'
#160
0%
0'
#165
b1111 .
1%
1'
#170
0%
0'
#175
b10000 .
1%
1'
#180
0%
0'
#185
b10001 .
1%
1'
#190
0%
0'
#195
b10010 .
1%
1'
#200
0%
0'
#205
b10011 .
1%
1'
#210
0%
0'
#215
b10100 .
1%
1'
#220
0%
0'
#225
b10101 .
1%
1'
#230
0%
0'
#235
b10110 .
1%
1'
#240
0%
0'
#245
b10111 .
1%
1'
#250
0%
0'
#255
b1 +
b11000 .
1%
1'
#260
0%
0'
#265
b10 ,
b10 "
b0 .
b1 )
1%
1'
#270
0%
0'
#275
b1 .
1%
1'
#280
0%
0'
#285
b10 .
1%
1'
#290
0%
0'
#295
b11 .
1%
1'
#300
0%
0'
#305
b10 +
b100 .
1%
1'
#310
0%
0'
#315
b1 /
b1 $
b100 ,
b100 "
b10 )
b0 .
1%
1'
#320
0%
0'
#325
b1 .
1%
1'
#330
0%
0'
#335
b10 .
1%
1'
#340
0%
0'
#345
b11 .
1%
1'
#350
0%
0'
#355
b100 .
1%
1'
#360
0%
0'
#365
b101 .
1%
1'
#370
0%
0'
#375
b110 .
1%
1'
#380
0%
0'
#385
b111 .
1%
1'
#390
0%
0'
#395
b1000 .
1%
1'
#400
0%
0'
#405
b1001 .
1%
1'
#410
0%
0'
#415
b1010 .
1%
1'
#420
0%
0'
#425
b1011 .
1%
1'
#430
0%
0'
#435
b1100 .
1%
1'
#440
0%
0'
#445
b1101 .
1%
1'
#450
0%
0'
#455
b1110 .
1%
1'
#460
0%
0'
#465
b1111 .
1%
1'
#470
0%
0'
#475
b10000 .
1%
1'
#480
0%
0'
#485
b10001 .
1%
1'
#490
0%
0'
#495
b10010 .
1%
1'
#500
0%
0'
#505
b10011 .
1%
1'
#510
0%
0'
#515
b10100 .
1%
1'
#520
0%
0'
#525
b10101 .
1%
1'
#530
0%
0'
#535
b10110 .
1%
1'
#540
0%
0'
#545
b10111 .
1%
1'
#550
0%
0'
#555
b11 +
b11000 .
1%
1'
#560
0%
0'
#565
b10 /
b10 $
b0 .
b11 )
1%
1'
#570
0%
0'
#575
b1 .
1%
1'
#580
0%
0'
#585
b10 .
1%
1'
#590
0%
0'
#595
b11 .
1%
1'
#600
0%
0'
#605
b100 +
b100 .
1%
1'
#610
0%
0'
#615
b1 -
b1 #
b100 /
b100 $
b100 )
b0 .
1%
1'
#620
0%
0'
#625
b1 .
1%
1'
#630
0%
0'
#635
b10 .
1%
1'
#640
0%
0'
#645
b11 .
1%
1'
#650
0%
0'
#655
b100 .
1%
1'
#660
0%
0'
#665
b101 .
1%
1'
#670
0%
0'
#675
b110 .
1%
1'
#680
0%
0'
#685
b111 .
1%
1'
#690
0%
0'
#695
b1000 .
1%
1'
#700
0%
0'
#705
b1001 .
1%
1'
#710
0%
0'
#715
b1010 .
1%
1'
#720
0%
0'
#725
b1011 .
1%
1'
#730
0%
0'
#735
b1100 .
1%
1'
#740
0%
0'
#745
b1101 .
1%
1'
#750
0%
0'
#755
b1110 .
1%
1'
#760
0%
0'
#765
b1111 .
1%
1'
#770
0%
0'
#775
b10000 .
1%
1'
#780
0%
0'
#785
b10001 .
1%
1'
#790
0%
0'
#795
b10010 .
1%
1'
#800
0%
0'
#805
b10011 .
1%
1'
#810
0%
0'
#815
b10100 .
1%
1'
#820
0%
0'
#825
b10101 .
1%
1'
#830
0%
0'
#835
b10110 .
1%
1'
#840
0%
0'
#845
b10111 .
1%
1'
#850
0%
0'
#855
b101 +
b11000 .
1%
1'
#860
0%
0'
#865
b10 -
b10 #
b0 .
b101 )
1%
1'
#870
0%
0'
#875
b1 .
1%
1'
#880
0%
0'
#885
b10 .
1%
1'
#890
0%
0'
#895
b11 .
1%
1'
#900
0%
0'
#905
b110 +
b100 .
1%
1'
#910
0%
0'
#915
b1 *
b1 !
b100 -
b100 #
b110 )
b0 .
1%
1'
#920
0%
0'
#925
b1 .
1%
1'
#930
0%
0'
#935
b10 .
1%
1'
#940
0%
0'
#945
b11 .
1%
1'
#950
0%
0'
#955
b100 .
1%
1'
#960
0%
0'
#965
b101 .
1%
1'
#970
0%
0'
#975
b110 .
1%
1'
#980
0%
0'
#985
b111 .
1%
1'
#990
0%
0'
#995
b1000 .
1%
1'
#1000
0%
0'
#1005
b1001 .
1%
1'
#1010
0%
0'
#1015
b1010 .
1%
1'
#1020
0%
0'
#1025
b1011 .
1%
1'
#1030
0%
0'
#1035
b1100 .
1%
1'
#1040
0%
0'
#1045
b1101 .
1%
1'
#1050
0%
0'
#1055
b1110 .
1%
1'
#1060
0%
0'
#1065
b1111 .
1%
1'
#1070
0%
0'
#1075
b10000 .
1%
1'
#1080
0%
0'
#1085
b10001 .
1%
1'
#1090
0%
0'
#1095
b10010 .
1%
1'
#1100
0%
0'
#1105
b10011 .
1%
1'
#1110
0%
0'
#1115
b10100 .
1%
1'
#1120
0%
0'
#1125
b10101 .
1%
1'
#1130
0%
0'
#1135
b10110 .
1%
1'
#1140
0%
0'
#1145
b10111 .
1%
1'
#1150
0%
0'
#1155
b111 +
b11000 .
1%
1'
#1160
0%
0'
#1165
b10 *
b10 !
b0 .
b111 )
1%
1'
#1170
0%
0'
#1175
b1 .
1%
1'
#1180
0%
0'
#1185
b10 .
1%
1'
#1190
0%
0'
#1195
b11 .
1%
1'
#1200
0%
0'
#1205
b0 +
b100 .
1%
1'
#1210
0%
0'
#1215
b100 *
b100 !
b1 ,
b1 "
b0 )
b0 .
1%
1'
#1220
0%
0'
#1225
b1 .
1%
1'
#1230
0%
0'
#1235
b10 .
1%
1'
#1240
0%
0'
#1245
b11 .
1%
1'
#1250
0%
0'
#1255
b100 .
1%
1'
#1260
0%
0'
#1265
b101 .
1%
1'
#1270
0%
0'
#1275
b110 .
1%
1'
#1280
0%
0'
#1285
b111 .
1%
1'
#1290
0%
0'
#1295
b1000 .
1%
1'
#1300
0%
0'
#1305
b1001 .
1%
1'
#1310
0%
0'
#1315
b1010 .
1%
1'
#1320
0%
0'
#1325
b1011 .
1%
1'
#1330
0%
0'
#1335
b1100 .
1%
1'
#1340
0%
0'
#1345
b1101 .
1%
1'
#1350
0%
0'
#1355
b1110 .
1%
1'
#1360
0%
0'
#1365
b1111 .
1%
1'
#1370
0%
0'
#1375
b10000 .
1%
1'
#1380
0%
0'
#1385
b10001 .
1%
1'
#1390
0%
0'
#1395
b10010 .
1%
1'
#1400
0%
0'
#1405
b10011 .
1%
1'
#1410
0%
0'
#1415
b10100 .
1%
1'
#1420
0%
0'
#1425
b10101 .
1%
1'
#1430
0%
0'
#1435
b10110 .
1%
1'
#1440
0%
0'
#1445
b10111 .
1%
1'
#1450
0%
0'
#1455
b1 +
b11000 .
1%
1'
#1460
0%
0'
#1465
b10 ,
b10 "
b0 .
b1 )
1%
1'
#1470
0%
0'
#1475
b1 .
1%
1'
#1480
0%
0'
#1485
b10 .
1%
1'
#1490
0%
0'
#1495
b11 .
1%
1'
#1500
0%
0'
#1505
b10 +
b100 .
1%
1'
#1510
0%
0'
#1515
b1 /
b1 $
b100 ,
b100 "
b10 )
b0 .
1%
1'
#1520
0%
0'
#1525
b1 .
1%
1'
#1530
0%
0'
#1535
b10 .
1%
1'
#1540
0%
0'
#1545
b11 .
1%
1'
#1550
0%
0'
#1555
b100 .
1%
1'
#1560
0%
0'
#1565
b101 .
1%
1'
#1570
0%
0'
#1575
b110 .
1%
1'
#1580
0%
0'
#1585
b111 .
1%
1'
#1590
0%
0'
#1595
b1000 .
1%
1'
#1600
0%
0'
#1605
b1001 .
1%
1'
#1610
0%
0'
#1615
b1010 .
1%
1'
#1620
0%
0'
#1625
b1011 .
1%
1'
#1630
0%
0'
#1635
b1100 .
1%
1'
#1640
0%
0'
#1645
b1101 .
1%
1'
#1650
0%
0'
#1655
b1110 .
1%
1'
#1660
0%
0'
#1665
b1111 .
1%
1'
#1670
0%
0'
#1675
b10000 .
1%
1'
#1680
0%
0'
#1685
b10001 .
1%
1'
#1690
0%
0'
#1695
b10010 .
1%
1'
#1700
0%
0'
#1705
b10011 .
1%
1'
#1710
0%
0'
#1715
b10100 .
1%
1'
#1720
0%
0'
#1725
b10101 .
1%
1'
#1730
0%
0'
#1735
b10110 .
1%
1'
#1740
0%
0'
#1745
b10111 .
1%
1'
#1750
0%
0'
#1755
b11 +
b11000 .
1%
1'
#1760
0%
0'
#1765
b10 /
b10 $
b0 .
b11 )
1%
1'
#1770
0%
0'
#1775
b1 .
1%
1'
#1780
0%
0'
#1785
b10 .
1%
1'
#1790
0%
0'
#1795
b11 .
1%
1'
#1800
0%
0'
#1805
b100 +
b100 .
1%
1'
#1810
0%
0'
#1815
b1 -
b1 #
b100 /
b100 $
b100 )
b0 .
1%
1'
#1820
0%
0'
#1825
b1 .
1%
1'
#1830
0%
0'
#1835
b10 .
1%
1'
#1840
0%
0'
#1845
b11 .
1%
1'
#1850
0%
0'
#1855
b100 .
1%
1'
#1860
0%
0'
#1865
b101 .
1%
1'
#1870
0%
0'
#1875
b110 .
1%
1'
#1880
0%
0'
#1885
b111 .
1%
1'
#1890
0%
0'
#1895
b1000 .
1%
1'
#1900
0%
0'
#1905
b1001 .
1%
1'
#1910
0%
0'
#1915
b1010 .
1%
1'
#1920
0%
0'
#1925
b1011 .
1%
1'
#1930
0%
0'
#1935
b1100 .
1%
1'
#1940
0%
0'
#1945
b1101 .
1%
1'
#1950
0%
0'
#1955
b1110 .
1%
1'
#1960
0%
0'
#1965
b1111 .
1%
1'
#1970
0%
0'
#1975
b10000 .
1%
1'
#1980
0%
0'
#1985
b10001 .
1%
1'
#1990
0%
0'
#1995
b10010 .
1%
1'
#2000
0%
0'
#2005
b10011 .
1%
1'
#2010
0%
0'
#2015
b10100 .
1%
1'
#2020
0%
0'
#2025
b10101 .
1%
1'
#2030
0%
0'
#2035
b10110 .
1%
1'
#2040
0%
0'
#2045
b10111 .
1%
1'
#2050
0%
0'
#2055
b101 +
b11000 .
1%
1'
#2060
0%
0'
#2065
b10 -
b10 #
b0 .
b101 )
1%
1'
#2070
0%
0'
#2075
b1 .
1%
1'
#2080
0%
0'
#2085
b10 .
1%
1'
#2090
0%
0'
#2095
b11 .
1%
1'
#2100
0%
0'
#2105
b110 +
b100 .
1%
1'
#2110
0%
0'
#2115
b1 *
b1 !
b100 -
b100 #
b110 )
b0 .
1%
1'
#2120
0%
0'
#2125
b1 .
1%
1'
#2130
0%
0'
#2135
b10 .
1%
1'
#2140
0%
0'
#2145
b11 .
1%
1'
#2150
0%
0'
#2155
b100 .
1%
1'
#2160
0%
0'
#2165
b101 .
1%
1'
#2170
0%
0'
#2175
b110 .
1%
1'
#2180
0%
0'
#2185
b111 .
1%
1'
#2190
0%
0'
#2195
b1000 .
1%
1'
#2200
0%
0'
#2205
b1001 .
1%
1'
#2210
0%
0'
#2215
b1010 .
1%
1'
#2220
0%
0'
#2225
b1011 .
1%
1'
#2230
0%
0'
#2235
b1100 .
1%
1'
#2240
0%
0'
#2245
b1101 .
1%
1'
#2250
0%
0'
#2255
b1110 .
1%
1'
#2260
0%
0'
#2265
b1111 .
1%
1'
#2270
0%
0'
#2275
b10000 .
1%
1'
#2280
0%
0'
#2285
b10001 .
1%
1'
#2290
0%
0'
#2295
b10010 .
1%
1'
#2300
0%
0'
#2305
b10011 .
1%
1'
#2310
0%
0'
#2315
b10100 .
1%
1'
#2320
0%
0'
#2325
b10101 .
1%
1'
#2330
0%
0'
#2335
b10110 .
1%
1'
#2340
0%
0'
#2345
b10111 .
1%
1'
#2350
0%
0'
#2355
b111 +
b11000 .
1%
1'
#2360
0%
0'
#2365
b10 *
b10 !
b0 .
b111 )
1%
1'
#2370
0%
0'
#2375
b1 .
1%
1'
#2380
0%
0'
#2385
b10 .
1%
1'
#2390
0%
0'
#2395
b11 .
1%
1'
#2400
0%
0'
#2405
b0 +
b100 .
1%
1'
#2410
0%
0'
#2415
b100 *
b100 !
b1 ,
b1 "
b0 )
b0 .
1%
1'
